{
    "pirmas": "data",
    "antras": "duomenys",
    "trecias": [
        {
            "category": "Entertainment: Music",
            "type": "multiple",
            "difficulty": "medium",
            "question": "Who is the artist of the recent new album the Uncanny Valley?",
            "correct_answer": "Perturbator",
            "incorrect_answers": [
                "Carpenter Brut",
                "GOST",
                "Dan Terminus "
            ]
        },
        {
            "category": "History",
            "type": "multiple",
            "difficulty": "hard",
            "question": "Which naval battle was considered the turning point of the Pacific Ocean Theater during World War 2?",
            "correct_answer": "Battle of Midway",
            "incorrect_answers": [
                "Attack on Truk Island",
                "Attack on Pearl Harbor",
                "Battle of the Coral Sea"
            ]
        }
    ]
}